//tx.bczcdn.com/readin/audios/1511856518_King%20Arthur%20and%20His%20Knights%20of%20the%20Round%20Table_1925_0.mp3
//tx.bczcdn.com/readin/audios/1499154033_King%20Arthur%20and%20His%20Knights%20of%20the%20Round%20Table_1926_0.mp3
//tx.bczcdn.com/readin/audios/2018040411483597.mp3
//tx.bczcdn.com/readin/audios/1501555457_King%20Arthur%20and%20His%20Knights%20of%20the%20Round%20Table_1928_0.mp3
//tx.bczcdn.com/readin/audios/1499164054_King%20Arthur%20and%20His%20Knights%20of%20the%20Round%20Table_1929_0.mp3
//tx.bczcdn.com/readin/audios/1499221526_King%20Arthur%20and%20His%20Knights%20of%20the%20Round%20Table_1930_0.mp3
//tx.bczcdn.com/readin/audios/1499225275_King%20Arthur%20and%20His%20Knights%20of%20the%20Round%20Table_1931_0.mp3
//tx.bczcdn.com/readin/audios/1499226561_King%20Arthur%20and%20His%20Knights%20of%20the%20Round%20Table_1932_0.mp3
//tx.bczcdn.com/readin/audios/1499234868_King%20Arthur%20and%20His%20Knights%20of%20the%20Round%20Table_1933_0.mp3
//tx.bczcdn.com/readin/audios/1499237310_King%20Arthur%20and%20His%20Knights%20of%20the%20Round%20Table_1934_0.mp3
//tx.bczcdn.com/readin/audios/1501573225_King%20Arthur%20and%20His%20Knights%20of%20the%20Round%20Table_1935_0.mp3
//tx.bczcdn.com/readin/audios/1508634995_King%20Arthur%20and%20His%20Knights%20of%20the%20Round%20Table_1936_0.mp3
//tx.bczcdn.com/readin/audios/1499242893_King%20Arthur%20and%20His%20Knights%20of%20the%20Round%20Table_1937_0.mp3
//tx.bczcdn.com/readin/audios/1507632078_King%20Arthur%20and%20His%20Knights%20of%20the%20Round%20Table_1938_0.mp3
//tx.bczcdn.com/readin/audios/1499248627_King%20Arthur%20and%20His%20Knights%20of%20the%20Round%20Table_1939_0.mp3
//tx.bczcdn.com/readin/audios/1501576599_King%20Arthur%20and%20His%20Knights%20of%20the%20Round%20Table_1940_0.mp3
//tx.bczcdn.com/readin/audios/1502776589_King%20Arthur%20and%20His%20Knights%20of%20the%20Round%20Table_1941_0.mp3
//tx.bczcdn.com/readin/audios/1499313491_King%20Arthur%20and%20His%20Knights%20of%20the%20Round%20Table_1942_0.mp3
//tx.bczcdn.com/readin/audios/1502785207_King%20Arthur%20and%20His%20Knights%20of%20the%20Round%20Table_1943_0.mp3
//tx.bczcdn.com/readin/audios/1501582153_King%20Arthur%20and%20His%20Knights%20of%20the%20Round%20Table_1944_0.mp3
//tx.bczcdn.com/readin/audios/1502867099_King%20Arthur%20and%20His%20Knights%20of%20the%20Round%20Table_1945_0.mp3
//tx.bczcdn.com/readin/audios/1499329381_King%20Arthur%20and%20His%20Knights%20of%20the%20Round%20Table_1946_0.mp3
//tx.bczcdn.com/readin/audios/1502981877_King%20Arthur%20and%20His%20Knights%20of%20the%20Round%20Table_1947_0.mp3
//tx.bczcdn.com/readin/audios/1503051986_King%20Arthur%20and%20His%20Knights%20of%20the%20Round%20Table_1948_0.mp3
//tx.bczcdn.com/readin/audios/1499338490_King%20Arthur%20and%20His%20Knights%20of%20the%20Round%20Table_1949_0.mp3
//tx.bczcdn.com/readin/audios/2018012110305589.mp3
//tx.bczcdn.com/readin/audios/1499397520_King%20Arthur%20and%20His%20Knights%20of%20the%20Round%20Table_1951_0.mp3
