//tx.bczcdn.com/readin/audios/1488866739_Black%20Beauty_1474_0.mp3
//tx.bczcdn.com/readin/audios/1501167741_Black%20Beauty_1475_0.mp3
//tx.bczcdn.com/readin/audios/1496833171_Black%20Beauty_1476_0.mp3
//tx.bczcdn.com/readin/audios/1501348673_Black%20Beauty_1477_0.mp3
//tx.bczcdn.com/readin/audios/1488876669_Black%20Beauty_1478_0.mp3
//tx.bczcdn.com/readin/audios/1488879296_Black%20Beauty_1479_0.mp3
//tx.bczcdn.com/readin/audios/1488881321_Black%20Beauty_1480_0.mp3
//tx.bczcdn.com/readin/audios/1488946255_Black%20Beauty_1481_0.mp3
//tx.bczcdn.com/readin/audios/1488953773_Black%20Beauty_1482_0.mp3
//tx.bczcdn.com/readin/audios/1488957406_Black%20Beauty_1483_0.mp3
//tx.bczcdn.com/readin/audios/1501830004_Black%20Beauty_1484_0.mp3
//tx.bczcdn.com/readin/audios/1488962920_Black%20Beauty_1485_0.mp3
//tx.bczcdn.com/readin/audios/1488965054_Black%20Beauty_1486_0.mp3
//tx.bczcdn.com/readin/audios/1497686100_Black%20Beauty_1487_0.mp3
//tx.bczcdn.com/readin/audios/1489031984_Black%20Beauty_1488_0.mp3
//tx.bczcdn.com/readin/audios/1489041333_Black%20Beauty_1489_0.mp3
//tx.bczcdn.com/readin/audios/1502423515_Black%20Beauty_1490_0.mp3
//tx.bczcdn.com/readin/audios/1502533859_Black%20Beauty_1491_0.mp3
//tx.bczcdn.com/readin/audios/1489048727_Black%20Beauty_1492_0.mp3
//tx.bczcdn.com/readin/audios/1489051004_Black%20Beauty_1493_0.mp3
