//tx.bczcdn.com/readin/audios/2018010317330026.mp3
//tx.bczcdn.com/readin/audios/2017121918401636.mp3
//tx.bczcdn.com/readin/audios/2017121519083873.mp3
//tx.bczcdn.com/readin/audios/201712081559280.mp3
//tx.bczcdn.com/readin/audios/2017121618593913.mp3
//tx.bczcdn.com/readin/audios/2017121114452340.mp3
//tx.bczcdn.com/readin/audios/2017121115552618.mp3
//tx.bczcdn.com/readin/audios/2017121116363658.mp3
//tx.bczcdn.com/readin/audios/201712121157078.mp3
//tx.bczcdn.com/readin/audios/2017121414272274.mp3
//tx.bczcdn.com/readin/audios/2017121415091565.mp3
//tx.bczcdn.com/readin/audios/201712141657594.mp3
//tx.bczcdn.com/readin/audios/2017122217245395.mp3
//tx.bczcdn.com/readin/audios/2017121615121344.mp3
//tx.bczcdn.com/readin/audios/2017121615130287.mp3
//tx.bczcdn.com/readin/audios/2017121911560151.mp3
//tx.bczcdn.com/readin/audios/2017122423423755.mp3
//tx.bczcdn.com/readin/audios/2017122500114640.mp3
//tx.bczcdn.com/readin/audios/2017122015464524.mp3
//tx.bczcdn.com/readin/audios/2018010617094580.mp3
